module backend-github-trending

go 1.22

require (
	github.com/dgrijalva/jwt-go v3.2.0+incompatible
	github.com/go-playground/locales v0.14.1
	github.com/go-playground/universal-translator v0.18.1
	github.com/go-playground/validator/v10 v10.22.0
	github.com/gocolly/colly v1.2.0
	github.com/golang-jwt/jwt v3.2.2+incompatible
	github.com/google/uuid v1.6.0
	github.com/jmoiron/sqlx v1.4.0
	github.com/labstack/echo v3.3.10+incompatible
	github.com/labstack/echo/v4 v4.12.0
	github.com/labstack/gommon v0.4.2
	github.com/lestrrat/go-file-rotatelogs v0.0.0-20180223000712-d3151e2a480f
	github.com/lib/pq v1.10.9
	github.com/pkg/errors v0.9.1
	github.com/rifflock/lfshook v0.0.0-20180920164130-b9218ef580f5
	github.com/sirupsen/logrus v1.9.3
	golang.org/x/crypto v0.24.0
)

require (
	github.com/BurntSushi/toml v1.4.0 // indirect
	github.com/PuerkitoBio/goquery v1.9.2 // indirect
	github.com/andybalholm/cascadia v1.3.2 // indirect
	github.com/antchfx/htmlquery v1.3.2 // indirect
	github.com/antchfx/xmlquery v1.4.1 // indirect
	github.com/antchfx/xpath v1.3.1 // indirect
	github.com/gabriel-vasile/mimetype v1.4.3 // indirect
	github.com/gobwas/glob v0.2.3 // indirect
	github.com/golang/groupcache v0.0.0-20210331224755-41bb18bfe9da // indirect
	github.com/golang/protobuf v1.5.2 // indirect
	github.com/kennygrant/sanitize v1.2.4 // indirect
	github.com/leodido/go-urn v1.4.0 // indirect
	github.com/lestrrat/go-strftime v0.0.0-20180220042222-ba3bf9c1d042 // indirect
	github.com/mattn/go-colorable v0.1.13 // indirect
	github.com/mattn/go-isatty v0.0.20 // indirect
	github.com/oasislabs/ed25519 v0.0.0-20200302143042-29f6767a7c3e // indirect
	github.com/saintfish/chardet v0.0.0-20230101081208-5e3ef4b5456d // indirect
	github.com/temoto/robotstxt v1.1.2 // indirect
	github.com/valyala/bytebufferpool v1.0.0 // indirect
	github.com/valyala/fasttemplate v1.2.2 // indirect
	go.uber.org/atomic v1.11.0 // indirect
	go.uber.org/multierr v1.11.0 // indirect
	go.uber.org/tools v0.0.0-20190618225709-2cfd321de3ee // indirect
	go.uber.org/zap v1.27.0 // indirect
	golang.org/x/lint v0.0.0-20210508222113-6edffad5e616 // indirect
	golang.org/x/mod v0.18.0 // indirect
	golang.org/x/net v0.26.0 // indirect
	golang.org/x/sync v0.7.0 // indirect
	golang.org/x/sys v0.21.0 // indirect
	golang.org/x/text v0.16.0 // indirect
	golang.org/x/time v0.5.0 // indirect
	golang.org/x/tools v0.22.0 // indirect
	google.golang.org/appengine v1.6.8 // indirect
	google.golang.org/protobuf v1.26.0 // indirect
	honnef.co/go/tools v0.4.7 // indirect
)
